…
## Usage

``` r
library(maccaindex)

data("macca_raw", package = "maccaindex")
macca_raw
#> # A tibble: 1,386 × 19
#>    date       iso_a3 currency_code name       local_price dollar_ex dollar_price
#>    <date>     <chr>  <chr>         <chr>            <dbl>     <dbl>        <dbl>
#>  1 2000-04-01 ARG    ARS           Argentina         2.5       1            2.5 
#>  2 2000-04-01 AUS    AUD           Australia         2.59      1.68         1.54
#>  3 2000-04-01 BRA    BRL           Brazil            2.95      1.79         1.65
#>  4 2000-04-01 CAN    CAD           Canada            2.85      1.47         1.94
#>  5 2000-04-01 CHE    CHF           Switzerla…        5.9       1.7          3.47
#>  6 2000-04-01 CHL    CLP           Chile          1260       514            2.45
#>  7 2000-04-01 CHN    CNY           China             9.9       8.28         1.20
#>  8 2000-04-01 CZE    CZK           Czech Rep…       54.4      39.1          1.39
#>  9 2000-04-01 DNK    DKK           Denmark          24.8       8.04         3.08
#> 10 2000-04-01 EUZ    EUR           Euro area         2.56      1.08         2.38
#> # ℹ 1,376 more rows
#> # ℹ 12 more variables: usd_raw <dbl>, eur_raw <dbl>, gbp_raw <dbl>,
#> #   jpy_raw <dbl>, cny_raw <dbl>, gdp_dollar <dbl>, adj_price <dbl>,
#> #   usd_adjusted <dbl>, eur_adjusted <dbl>, gbp_adjusted <dbl>,
#> #   jpy_adjusted <dbl>, cny_adjusted <dbl>
…
